     )                                     *                               
  ( /(                          )        (  `                 )            
  )\())   )  (       )       ( /(    (   )\))(      )      ( /(   (   (    
|((_)\ ( /(  )(   ( /(   (   )\())  ))\ ((_)()\  ( /(  (   )\()) ))\  )(   
|_ ((_))(_))(()\  )(_))  )\ ((_)\  /((_)(_()((_) )(_)) )\ (_))/ /((_)(()\  
| |/ /((_)_  ((_)((_)_  ((_)| |(_)(_))  |  \/  |((_)_ ((_)| |_ (_))   ((_) 
  ' < / _` || '_|/ _` |/ _ \| / / / -_) | |\/| |/ _` |(_-<|  _|/ -_) | '_| 
 _|\_\\__,_||_|  \__,_|\___/|_\_\ \___| |_|  |_|\__,_|/__/ \__|\___| |_|   